<svg width="150" height="40" viewBox="0 0 150 40" fill="none" xmlns="http://www.w3.org/2000/svg">
<rect width="149.143" height="40" rx="20" fill="#DC062B"/>
<path d="M33.36 20.896V18.48H37.84V20.896H33.36ZM27.808 20.896V18.48H32.144V20.896H27.808ZM32.144 15.056V17.376H27.808V15.056H32.144ZM37.84 15.056V17.376H33.36V15.056H37.84ZM33.36 13.92V11.808H32.144V13.92H26.64V22.96H27.808V22.048H32.144V26.4H33.36V22.048H37.84V22.88H39.04V13.92H33.36ZM45.296 13.952C45.136 13.392 44.784 12.512 44.448 11.856L43.456 12.16C43.76 12.832 44.112 13.744 44.256 14.32L45.296 13.952ZM45.504 21.84V24.512H43.056V21.84H45.504ZM46.56 20.864H42.016V26.224H43.056V25.488H46.56V20.864ZM41.952 19.616H46.608V18.672H41.952V19.616ZM46.592 16.512H41.936V17.456H46.592V16.512ZM41.568 15.472H47.056V14.496H41.568V15.472ZM49.216 22.976C49.248 22.56 49.264 22.16 49.264 21.792H54.064V22.976H49.216ZM54.064 19.76V20.944H49.264V19.76H54.064ZM55.184 18.816H48.176V21.76C48.176 23.024 48.064 24.64 47.12 25.84C47.36 25.968 47.776 26.4 47.952 26.624C48.608 25.84 48.928 24.832 49.104 23.824H54.064V25.184C54.064 25.36 54.016 25.424 53.808 25.424C53.616 25.44 52.96 25.44 52.24 25.408C52.4 25.696 52.528 26.096 52.576 26.4C53.584 26.4 54.24 26.4 54.64 26.224C55.072 26.048 55.184 25.76 55.184 25.184V18.816ZM52.176 16.96V15.872H55.648V15.008H52.176V14.032H55.952V13.12H52.176V11.824H51.008V13.12H47.408V14.032H51.008V15.008H47.808V15.872H51.008V16.96H47.232V17.872H56.112V16.96H52.176ZM69.552 16.896V19.68H65.136C65.312 18.8 65.424 17.872 65.504 16.896H69.552ZM60.48 19.68V16.896H64.272C64.192 17.888 64.096 18.8 63.888 19.68H60.48ZM66.064 14.048C65.696 14.656 65.2 15.328 64.736 15.824H60.496C61.072 15.248 61.6 14.656 62.064 14.048H66.064ZM67.632 25.024C66.912 25.024 66.784 24.944 66.784 24.464V20.752H70.784V15.824H66.112C66.704 15.12 67.328 14.272 67.744 13.52L66.944 12.976L66.736 13.04H62.784C63.024 12.688 63.248 12.368 63.44 12.032L62.128 11.792C61.28 13.376 59.68 15.344 57.52 16.784C57.792 16.976 58.176 17.36 58.352 17.648C58.688 17.408 58.992 17.184 59.296 16.928V20.752H63.568C62.832 22.784 61.264 24.384 57.68 25.264C57.952 25.52 58.24 25.968 58.352 26.272C62.368 25.184 64.064 23.248 64.848 20.752H65.568V24.48C65.568 25.744 65.968 26.096 67.504 26.096H70.176C71.536 26.096 71.888 25.536 72.048 23.264C71.696 23.2 71.216 23.008 70.944 22.8C70.88 24.72 70.768 25.024 70.08 25.024H67.632ZM78.432 24.08C77.296 24.672 75.344 25.232 73.712 25.536C73.968 25.744 74.384 26.192 74.56 26.432C76.176 26.016 78.192 25.296 79.504 24.56L78.432 24.08ZM76.896 22.288H84.896V23.296H76.896V22.288ZM82.032 16.928V18.032H83.152V16.928H86.528C86.48 17.264 86.416 17.424 86.336 17.504C86.256 17.6 86.144 17.616 85.968 17.616C85.792 17.616 85.36 17.6 84.864 17.552C84.944 17.696 85.024 17.888 85.056 18.064H77.92C78.448 17.728 78.816 17.344 79.056 16.928H82.032ZM78.448 15.184C78.416 15.52 78.352 15.84 78.208 16.144H76.096C76.144 15.84 76.192 15.52 76.24 15.184H78.448ZM79.568 13.488H82.032V14.4H79.568V13.488ZM85.632 13.488V14.4H83.152V13.488H85.632ZM82.032 16.144H79.376C79.472 15.84 79.52 15.52 79.536 15.184H82.032V16.144ZM84.896 19.824H76.896V18.832H84.896V19.824ZM84.896 21.536H76.896V20.56H84.896V21.536ZM86.08 24.064V18.368C86.24 18.368 86.384 18.352 86.496 18.352C86.816 18.336 87.056 18.256 87.264 18.064C87.488 17.856 87.584 17.392 87.68 16.528C87.696 16.384 87.712 16.144 87.712 16.144H83.152V15.184H86.72V12.704H83.152V11.824H82.032V12.704H79.568V11.824H78.48V12.704H74.576V13.488H78.48V14.4H75.296C75.2 15.232 75.04 16.224 74.896 16.928H77.616C76.944 17.536 75.776 18.048 73.76 18.416C73.952 18.64 74.208 19.072 74.32 19.344C74.848 19.232 75.328 19.12 75.744 18.992V24.064H82.832L82.24 24.64C84.064 25.184 85.872 25.856 86.944 26.352L87.84 25.616C86.752 25.152 85.008 24.544 83.344 24.064H86.08ZM94.112 13.968H97.104V12.8H89.936V13.968H92.912V18.08H89.504V19.248H92.912V26.384H94.112V19.248H97.568V18.08H94.112V13.968ZM99.84 13.696H98.656V22.528H99.84V13.696ZM102.144 12.112V24.8C102.144 25.104 102.016 25.2 101.712 25.216C101.376 25.216 100.336 25.232 99.184 25.184C99.376 25.52 99.568 26.096 99.632 26.416C101.136 26.432 102.048 26.4 102.592 26.192C103.12 26 103.344 25.632 103.344 24.8V12.112H102.144ZM115.216 22.656C114.96 23.36 114.464 24.336 114.048 25.008H110.352L111.344 24.672C111.184 24.112 110.768 23.296 110.368 22.688L109.296 23.024C109.68 23.632 110.048 24.464 110.192 25.008H105.808V26.048H119.808V25.008H115.264C115.6 24.4 116 23.648 116.336 22.96L115.216 22.656ZM115.984 21.568H109.344V19.568H115.984V21.568ZM117.232 18.576H108.176V22.56H117.232V18.576ZM118.816 13.84C118.272 14.416 117.376 15.184 116.592 15.776C116.208 15.392 115.84 14.976 115.52 14.56C116.304 14.016 117.216 13.28 117.952 12.592L117.04 11.952C116.528 12.512 115.696 13.264 114.976 13.84C114.544 13.2 114.16 12.528 113.872 11.856L112.832 12.176C113.488 13.68 114.384 15.056 115.488 16.256H110.208C111.12 15.248 111.888 14.08 112.384 12.768L111.6 12.368L111.376 12.416H106.464V13.424H110.816C110.416 14.208 109.84 14.96 109.216 15.664C108.704 15.12 107.856 14.496 107.12 14.064L106.48 14.736C107.2 15.184 108.016 15.808 108.512 16.352C107.52 17.264 106.368 18.016 105.28 18.464C105.52 18.688 105.856 19.088 106.016 19.36C107.376 18.72 108.768 17.744 109.952 16.528V17.28H115.68V16.464C116.8 17.632 118.08 18.592 119.472 19.216C119.68 18.912 120.016 18.448 120.288 18.224C119.216 17.808 118.192 17.168 117.28 16.384C118.064 15.84 118.992 15.12 119.712 14.448L118.816 13.84Z" fill="white"/>
</svg>
