<svg width="35" height="35" viewBox="0 0 35 35" fill="none" xmlns="http://www.w3.org/2000/svg">
<rect width="35" height="35" fill="white"/>
<path d="M35 0H0V35H35V0Z" fill="#50ABF1"/>
<path d="M4.6372 25.9447C6.96654 27.422 9.72964 28.2769 12.6916 28.2769C21.0127 28.2769 27.7581 21.5308 27.7581 13.2104C27.7581 13.0026 27.7538 12.7964 27.7458 12.5908C28.0467 12.354 29.9082 10.862 30.3645 9.90284C30.3645 9.90284 28.8528 10.5311 27.3734 10.6791C27.3704 10.6791 27.3668 10.6797 27.3639 10.6797C27.3639 10.6797 27.3668 10.6783 27.3719 10.6747C27.5082 10.5836 29.4141 9.28622 29.6721 7.74039C29.6721 7.74039 28.6029 8.31109 27.1059 8.81036C26.858 8.89269 26.5986 8.97364 26.3311 9.04867C25.3661 8.01879 23.9945 7.37598 22.4719 7.37598C19.5515 7.37598 17.185 9.74179 17.185 12.66C17.185 13.0718 17.2324 13.4726 17.322 13.8575C16.9139 13.8407 10.699 13.4923 6.47102 8.37222C6.47102 8.37222 3.94416 11.8218 7.97684 15.3691C7.97684 15.3691 6.75096 15.3202 5.69335 14.6883C5.69335 14.6883 5.3049 18.8674 9.87179 19.936C9.87179 19.936 8.97316 20.2763 7.53954 20.0336C7.53954 20.0336 8.34125 23.4104 12.3987 23.7259C12.3987 23.7259 9.19027 26.6244 4.63574 25.9443L4.6372 25.9447Z" fill="white"/>
</svg>
